%YAML 1.1
%TAG !u! tag:unity3d.com,2011:
--- !u!114 &11400000
MonoBehaviour:
  m_ObjectHideFlags: 0
  m_CorrespondingSourceObject: {fileID: 0}
  m_PrefabInstance: {fileID: 0}
  m_PrefabAsset: {fileID: 0}
  m_GameObject: {fileID: 0}
  m_Enabled: 1
  m_EditorHideFlags: 0
  m_Script: {fileID: 11500000, guid: 42dff178cdcfb1740a46c868a9902c1e, type: 3}
  m_Name: Uncategorized
  m_EditorClassIdentifier: 
  AnimationNames:
  - Default
  Database:
  - {fileID: 114238406390177904}
  DatabaseName: Uncategorized
  DataType: 3
--- !u!114 &114238406390177904
MonoBehaviour:
  m_ObjectHideFlags: 0
  m_CorrespondingSourceObject: {fileID: 0}
  m_PrefabInstance: {fileID: 0}
  m_PrefabAsset: {fileID: 0}
  m_GameObject: {fileID: 0}
  m_Enabled: 1
  m_EditorHideFlags: 0
  m_Script: {fileID: 11500000, guid: fe5b16c60b843134eb75c4ba6a7b6f52, type: 3}
  m_Name: Default
  m_EditorClassIdentifier: 
  Animation:
    AnimationType: 3
    Move:
      AnimationType: 3
      Enabled: 0
      From: {x: 0, y: 0, z: 0}
      To: {x: 0, y: 0, z: 0}
      By: {x: 0, y: 0, z: 0}
      UseCustomFromAndTo: 0
      Vibrato: 10
      Elasticity: 1
      NumberOfLoops: -1
      LoopType: 1
      Direction: 0
      CustomPosition: {x: 0, y: 0, z: 0}
      EaseType: 0
      Ease: 1
      AnimationCurve:
        serializedVersion: 2
        m_Curve: []
        m_PreInfinity: 2
        m_PostInfinity: 2
        m_RotationOrder: 4
      StartDelay: 0
      Duration: 1
    Rotate:
      AnimationType: 3
      Enabled: 0
      From: {x: 0, y: 0, z: 0}
      To: {x: 0, y: 0, z: 0}
      By: {x: 0, y: 0, z: 0}
      UseCustomFromAndTo: 0
      Vibrato: 10
      Elasticity: 1
      NumberOfLoops: -1
      LoopType: 1
      RotateMode: 1
      EaseType: 0
      Ease: 1
      AnimationCurve:
        serializedVersion: 2
        m_Curve: []
        m_PreInfinity: 2
        m_PostInfinity: 2
        m_RotationOrder: 4
      StartDelay: 0
      Duration: 1
    Scale:
      AnimationType: 3
      Enabled: 0
      From: {x: 0, y: 0, z: 0}
      To: {x: 0, y: 0, z: 0}
      By: {x: 0, y: 0, z: 0}
      UseCustomFromAndTo: 0
      Vibrato: 10
      Elasticity: 1
      NumberOfLoops: -1
      LoopType: 1
      EaseType: 0
      Ease: 1
      AnimationCurve:
        serializedVersion: 2
        m_Curve: []
        m_PreInfinity: 2
        m_PostInfinity: 2
        m_RotationOrder: 4
      StartDelay: 0
      Duration: 1
    Fade:
      AnimationType: 3
      Enabled: 0
      From: 0
      To: 0
      By: 0.5
      UseCustomFromAndTo: 0
      NumberOfLoops: -1
      LoopType: 1
      EaseType: 0
      Ease: 1
      AnimationCurve:
        serializedVersion: 2
        m_Curve: []
        m_PreInfinity: 2
        m_PostInfinity: 2
        m_RotationOrder: 4
      StartDelay: 0
      Duration: 1
  Category: Uncategorized
  Name: Default
